module gitlab.com/tslocum/squall

go 1.14

require (
	github.com/faiface/glhf v0.0.0-20181018222622-82a6317ac380 // indirect
	github.com/faiface/mainthread v0.0.0-20171120011319-8b78f0a41ae3 // indirect
	github.com/faiface/pixel v0.8.0
	github.com/go-gl/gl v0.0.0-20190320180904-bf2b1f2f34d7 // indirect
	github.com/go-gl/glfw v0.0.0-20200420212212-258d9bec320e // indirect
	github.com/go-gl/mathgl v0.0.0-20190713194549-592312d8590a // indirect
	github.com/pkg/errors v0.9.1 // indirect
)
